%YAML 1.1
%TAG !u! tag:unity3d.com,2011:
--- !u!114 &11400000
MonoBehaviour:
  m_ObjectHideFlags: 0
  m_CorrespondingSourceObject: {fileID: 0}
  m_PrefabInstance: {fileID: 0}
  m_PrefabAsset: {fileID: 0}
  m_GameObject: {fileID: 0}
  m_Enabled: 1
  m_EditorHideFlags: 0
  m_Script: {fileID: 11500000, guid: b33ea06d6a9d52c428d6977a235c1be9, type: 3}
  m_Name: TGapRightTile
  m_EditorClassIdentifier: 
  <TileSprite>k__BackingField: {fileID: 163995535, guid: a01a92001162d734fa0f34ab6ad26c6b, type: 3}
  <UpNeighbors>k__BackingField:
  - {fileID: 11400000, guid: b560bca2e7c14df47a888581b93272ab, type: 2}
  - {fileID: 11400000, guid: 3184c6bf56730a840b2b9f9a78681dd6, type: 2}
  - {fileID: 11400000, guid: f14505f4d7b92964ba724090cdc3bb34, type: 2}
  - {fileID: 11400000, guid: cca983a0cd9d8614888a39125511b8ca, type: 2}
  - {fileID: 11400000, guid: b286c1afa8449ea46977053e59405767, type: 2}
  - {fileID: 11400000, guid: 20d1ada7eb00ae84ab72d3bedf4e51c2, type: 2}
  - {fileID: 11400000}
  - {fileID: 11400000, guid: 7969df5c9d4acae4eb3b367a578c864a, type: 2}
  <RightNeighbors>k__BackingField:
  - {fileID: 11400000, guid: 6d5aadf571a404e42a3a9022166e2df4, type: 2}
  - {fileID: 11400000, guid: 6d18539d6461fdc4db7df3a4c171ed77, type: 2}
  - {fileID: 11400000, guid: 3184c6bf56730a840b2b9f9a78681dd6, type: 2}
  - {fileID: 11400000, guid: cca983a0cd9d8614888a39125511b8ca, type: 2}
  - {fileID: 11400000, guid: 89623bfb28aaa98449ff28bd1fd385bc, type: 2}
  - {fileID: 11400000, guid: c28d4832febb1aa45aa1a6d47960c6e8, type: 2}
  - {fileID: 11400000, guid: b286c1afa8449ea46977053e59405767, type: 2}
  - {fileID: 11400000, guid: 20d1ada7eb00ae84ab72d3bedf4e51c2, type: 2}
  <DownNeighbors>k__BackingField:
  - {fileID: 11400000, guid: b560bca2e7c14df47a888581b93272ab, type: 2}
  - {fileID: 11400000, guid: 6d18539d6461fdc4db7df3a4c171ed77, type: 2}
  - {fileID: 11400000, guid: 10f7d7bc2559fa74da7ac91e93f73fd0, type: 2}
  - {fileID: 11400000, guid: c28d4832febb1aa45aa1a6d47960c6e8, type: 2}
  - {fileID: 11400000, guid: b286c1afa8449ea46977053e59405767, type: 2}
  - {fileID: 11400000, guid: 08a232ae7a0a5924fa3cfb193894e28c, type: 2}
  - {fileID: 11400000, guid: 20d1ada7eb00ae84ab72d3bedf4e51c2, type: 2}
  - {fileID: 11400000}
  <LeftNeighbors>k__BackingField:
  - {fileID: 11400000, guid: b560bca2e7c14df47a888581b93272ab, type: 2}
  - {fileID: 11400000, guid: 10f7d7bc2559fa74da7ac91e93f73fd0, type: 2}
  - {fileID: 11400000, guid: f14505f4d7b92964ba724090cdc3bb34, type: 2}
  - {fileID: 11400000, guid: 89623bfb28aaa98449ff28bd1fd385bc, type: 2}
  - {fileID: 11400000, guid: 67468ad619cb3de468ac7353e0c44988, type: 2}
  - {fileID: 11400000, guid: 08a232ae7a0a5924fa3cfb193894e28c, type: 2}
  - {fileID: 11400000, guid: 20d1ada7eb00ae84ab72d3bedf4e51c2, type: 2}
  - {fileID: 11400000, guid: 7969df5c9d4acae4eb3b367a578c864a, type: 2}
