%YAML 1.1
%TAG !u! tag:unity3d.com,2011:
--- !u!114 &11400000
MonoBehaviour:
  m_ObjectHideFlags: 0
  m_CorrespondingSourceObject: {fileID: 0}
  m_PrefabInstance: {fileID: 0}
  m_PrefabAsset: {fileID: 0}
  m_GameObject: {fileID: 0}
  m_Enabled: 1
  m_EditorHideFlags: 0
  m_Script: {fileID: 11500000, guid: b33ea06d6a9d52c428d6977a235c1be9, type: 3}
  m_Name: W_Path_4 (ElbowDR)
  m_EditorClassIdentifier: 
  <TileSprite>k__BackingField: {fileID: 1132145445, guid: a01a92001162d734fa0f34ab6ad26c6b, type: 3}
  upNeighbors:
    _serializedList:
    - Key: {fileID: 11400000, guid: 2914fff7f3efe2349a5cea852046ad0d, type: 2}
      Value: 27
    - Key: {fileID: 11400000, guid: 0c9558b75b6730049bbda6dc0435581c, type: 2}
      Value: 3
    - Key: {fileID: 11400000, guid: 63114e6f544552244ab0504a4aa57ab8, type: 2}
      Value: 1
    - Key: {fileID: 11400000, guid: 29cc849f0531bae49b58000c6a78505d, type: 2}
      Value: 1
  rightNeighbors:
    _serializedList:
    - Key: {fileID: 11400000, guid: 0c9558b75b6730049bbda6dc0435581c, type: 2}
      Value: 29
    - Key: {fileID: 11400000, guid: 425e8b457c8183f48869c1b4be6267ca, type: 2}
      Value: 1
    - Key: {fileID: 11400000, guid: 94fa7e125184ee242b98934a9f98cd72, type: 2}
      Value: 1
    - Key: {fileID: 11400000, guid: 29cc849f0531bae49b58000c6a78505d, type: 2}
      Value: 1
  downNeighbors:
    _serializedList:
    - Key: {fileID: 11400000, guid: f71cccadab182204f874562dd14bccd4, type: 2}
      Value: 29
    - Key: {fileID: 11400000, guid: 425e8b457c8183f48869c1b4be6267ca, type: 2}
      Value: 1
    - Key: {fileID: 11400000, guid: 63114e6f544552244ab0504a4aa57ab8, type: 2}
      Value: 1
    - Key: {fileID: 11400000, guid: 29cc849f0531bae49b58000c6a78505d, type: 2}
      Value: 1
  leftNeighbors:
    _serializedList:
    - Key: {fileID: 11400000, guid: 2914fff7f3efe2349a5cea852046ad0d, type: 2}
      Value: 27
    - Key: {fileID: 11400000, guid: f71cccadab182204f874562dd14bccd4, type: 2}
      Value: 3
    - Key: {fileID: 11400000, guid: 94fa7e125184ee242b98934a9f98cd72, type: 2}
      Value: 1
    - Key: {fileID: 11400000, guid: 29cc849f0531bae49b58000c6a78505d, type: 2}
      Value: 1
