%YAML 1.1
%TAG !u! tag:unity3d.com,2011:
--- !u!181963792 &2655988077585873504
Preset:
  m_ObjectHideFlags: 0
  m_CorrespondingSourceObject: {fileID: 0}
  m_PrefabInstance: {fileID: 0}
  m_PrefabAsset: {fileID: 0}
  m_Name: WFC_Weighted
  m_TargetType:
    m_NativeTypeID: 114
    m_ManagedTypePPtr: {fileID: 11500000, guid: 9498f02256607c04e8fb9c325c02dc79, type: 3}
    m_ManagedTypeFallback: 
  m_Properties:
  - target: {fileID: 0}
    propertyPath: m_Enabled
    value: 1
    objectReference: {fileID: 0}
  - target: {fileID: 0}
    propertyPath: m_EditorHideFlags
    value: 0
    objectReference: {fileID: 0}
  - target: {fileID: 0}
    propertyPath: m_EditorClassIdentifier
    value: 
    objectReference: {fileID: 0}
  - target: {fileID: 0}
    propertyPath: dimensions
    value: 16
    objectReference: {fileID: 0}
  - target: {fileID: 0}
    propertyPath: tileSet.Array.size
    value: 8
    objectReference: {fileID: 0}
  - target: {fileID: 0}
    propertyPath: tileSet.Array.data[0]
    value: 
    objectReference: {fileID: 11400000, guid: 2914fff7f3efe2349a5cea852046ad0d, type: 2}
  - target: {fileID: 0}
    propertyPath: tileSet.Array.data[1]
    value: 
    objectReference: {fileID: 11400000, guid: f71cccadab182204f874562dd14bccd4, type: 2}
  - target: {fileID: 0}
    propertyPath: tileSet.Array.data[2]
    value: 
    objectReference: {fileID: 11400000, guid: 0c9558b75b6730049bbda6dc0435581c, type: 2}
  - target: {fileID: 0}
    propertyPath: tileSet.Array.data[3]
    value: 
    objectReference: {fileID: 11400000, guid: 425e8b457c8183f48869c1b4be6267ca, type: 2}
  - target: {fileID: 0}
    propertyPath: tileSet.Array.data[4]
    value: 
    objectReference: {fileID: 11400000, guid: 1236b16a8e60a414092844fafcfda4bf, type: 2}
  - target: {fileID: 0}
    propertyPath: tileSet.Array.data[5]
    value: 
    objectReference: {fileID: 11400000, guid: 94fa7e125184ee242b98934a9f98cd72, type: 2}
  - target: {fileID: 0}
    propertyPath: tileSet.Array.data[6]
    value: 
    objectReference: {fileID: 11400000, guid: 63114e6f544552244ab0504a4aa57ab8, type: 2}
  - target: {fileID: 0}
    propertyPath: tileSet.Array.data[7]
    value: 
    objectReference: {fileID: 11400000, guid: 29cc849f0531bae49b58000c6a78505d, type: 2}
  - target: {fileID: 0}
    propertyPath: cellPrefab
    value: 
    objectReference: {fileID: 7513153955072392845, guid: cf3d40a5eeadb544488286304627f7f8, type: 3}
  - target: {fileID: 0}
    propertyPath: doDebug
    value: 0
    objectReference: {fileID: 0}
  - target: {fileID: 0}
    propertyPath: stepKey
    value: 32
    objectReference: {fileID: 0}
  - target: {fileID: 0}
    propertyPath: gridBuildTimeStep
    value: 0.01
    objectReference: {fileID: 0}
  - target: {fileID: 0}
    propertyPath: gridComponents.Array.size
    value: 0
    objectReference: {fileID: 0}
  m_ExcludedProperties: []
